…
 $ Cultivation: Factor w/ 3 levels "march","may",..: 3 3 3 3 3 2 2 2 2 2 ...
 $ Block      : Factor w/ 4 levels "a","b","c","d": 1 1 1 1 1 1 1 1 1 1 ...
 $ Plot       : Factor w/ 12 levels "1","10","11",..: 1 1 1 1 1 5 5 5 5 5 ...
 $ Quadrat    : Factor w/ 6 levels "Q1","Q2","Q3",..: 1 2 3 4 5 1 2 3 4 5 ...
 $ Species    : Factor w/ 41 levels "Achillea millefolium",..: 1 1 1 1 1 1 1 1 1 1 ...
 $ Count      : num  4 8 3 20 6 4 0 0 0 0 ...
  Cultivation Block Plot Quadrat              Species Count
1     october     a    1      Q1 Achillea millefolium     4
2     october     a    1      Q2 Achillea millefolium     8
3     october     a    1      Q3 Achillea millefolium     3
4     october     a    1      Q4 Achillea millefolium    20
5     october     a    1      Q5 Achillea millefolium     6
6         may     a    2      Q1 Achillea millefolium     4
[1] 2419    6
# A tibble: 45 x 60
   V1    V2    V3    V4    V5    V6   V7    V8    V9    V10   V11   V12   V13  
   <chr> <chr> <chr> <chr> <chr> <ch> <chr> <chr> <chr> <chr> <chr> <chr> <chr>
 1 Cult… octo… octo… octo… octo… oct… may   may   may   may   may   march march
 2 Block a     a     a     a     a    a     a     a     a     a     a     a    
 3 Plot  1     1     1     1     1    2     2     2     2     2     3     3    
 4 Quad… Q1    Q2    Q3    Q4    Q5   Q1    Q2    Q3    Q4    Q5    Q1    Q2   
 5 Achi… 4     8     3     20    6    4     ""    ""    ""    ""    1     2    
 6 Agro… ""    ""    ""    ""    15   ""    ""    ""    ""    2     8     ""   
 7 Anag… ""    ""    ""    ""    ""   ""    ""    ""    ""    2     ""    ""   
 8 Anch… ""    3     1     1     ""   1     ""    ""    ""    ""    ""    ""   
 9 Anis… ""    ""    ""    ""    5    ""    ""    ""    ""    ""    ""    ""   
10 Apha… ""    ""    ""    ""    ""   ""    ""    ""    ""    ""    ""    ""   
# ... with 35 more rows, and 47 more variables: V14 <chr>, V15 <chr>,
#   V16 <chr>, V17 <chr>, V18 <chr>, V19 <chr>, V20 <chr>, V21 <chr>,
#   V22 <chr>, V23 <chr>, V24 <chr>, V25 <chr>, V26 <chr>, V27 <chr>,
#   V28 <chr>, V29 <chr>, V30 <chr>, V31 <chr>, V32 <chr>, V33 <chr>,
#   V34 <chr>, V35 <chr>, V36 <chr>, V37 <chr>, V38 <chr>, V39 <chr>,
#   V40 <chr>, V41 <chr>, V42 <chr>, V43 <chr>, V44 <chr>, V45 <chr>,
#   V46 <chr>, V47 <chr>, V48 <chr>, V49 <chr>, V50 <chr>, V51 <chr>,
#   V52 <chr>, V53 <chr>, V54 <chr>, V55 <chr>, V56 <chr>, V57 <chr>,
#   V58 <chr>, V59 <chr>, V60 <chr>
[1] 45 60
 chr [1:45, 1:60] "Cultivation" "Block" "Plot" "Quadrat" ...
 - attr(*, "dimnames")=List of 2
  ..$ : NULL
  ..$ : chr [1:60] "V1" "V2" "V3" "V4" ...
# A tibble: 60 x 45
   V1    V2    V3    V4    V5    V6    V7    V8    V9    V10   V11   V12   V13 
   <chr> <chr> <chr> <chr> <chr> <chr> <chr> <chr> <chr> <chr> <chr> <chr> <ch>
 1 Cult… Block Plot  Quad… Achi… Agro… Anag… Anch… Anis… Apha… Arte… Brom… Cer…
 2 octo… a     1     Q1    4     ""    ""    ""    ""    ""    ""    ""    ""  
 3 octo… a     1     Q2    8     ""    ""    3     ""    ""    ""    ""    2   
 4 octo… a     1     Q3    3     ""    ""    1     ""    ""    2     ""    1   
 5 octo… a     1     Q4    20    ""    ""    1     ""    ""    ""    ""    ""  
 6 octo… a     1     Q5    6     15    ""    ""    5     ""    ""    ""    ""  
 7 may   a     2     Q1    4     ""    ""    1     ""    ""    ""    ""    ""  
 8 may   a     2     Q2    ""    ""    ""    ""    ""    ""    4     ""    ""  
 9 may   a     2     Q3    ""    ""    ""    ""    ""    ""    ""    ""    ""  
10 may   a     2     Q4    ""    ""    ""    ""    ""    ""    ""    ""    ""  
# ... with 50 more rows, and 32 more variables: V14 <chr>, V15 <chr>,
#   V16 <chr>, V17 <chr>, V18 <chr>, V19 <chr>, V20 <chr>, V21 <chr>,
#   V22 <chr>, V23 <chr>, V24 <chr>, V25 <chr>, V26 <chr>, V27 <chr>,
#   V28 <chr>, V29 <chr>, V30 <chr>, V31 <chr>, V32 <chr>, V33 <chr>,
#   V34 <chr>, V35 <chr>, V36 <chr>, V37 <chr>, V38 <chr>, V39 <chr>,
#   V40 <chr>, V41 <chr>, V42 <chr>, V43 <chr>, V44 <chr>, V45 <chr>
…
